0.001250, 0.010000, 0.001000,  0.076163, 0.076149, 1.009987, 0.000109 
0.001250, 0.011000, 0.001000,  0.083780, 0.083764, 1.010986, 0.000122 
0.001250, 0.012000, 0.001000,  0.091396, 0.091379, 1.011985, 0.000135 
0.001250, 0.013000, 0.001000,  0.099012, 0.098994, 1.012983, 0.000149 
0.001250, 0.014000, 0.001000,  0.106629, 0.106609, 1.013982, 0.000164 
0.001250, 0.015000, 0.001000,  0.114245, 0.114224, 1.014981, 0.000179 
0.001250, 0.016000, 0.001000,  0.121861, 0.121840, 1.015980, 0.000194 
0.001250, 0.017000, 0.001000,  0.129478, 0.129455, 1.016978, 0.000210 
0.001250, 0.018000, 0.001000,  0.137094, 0.137070, 1.017977, 0.000227 
0.001250, 0.019000, 0.001000,  0.144710, 0.144685, 1.018976, 0.000245 
0.001250, 0.020000, 0.001000,  0.152327, 0.152300, 1.019974, 0.000263 
0.001250, 0.021000, 0.001000,  0.159943, 0.159915, 1.020973, 0.000283 
0.001250, 0.022000, 0.001000,  0.167559, 0.167531, 1.021972, 0.000303 
0.001250, 0.023000, 0.001000,  0.175176, 0.175146, 1.022971, 0.000323 
0.001250, 0.024000, 0.001000,  0.182792, 0.182761, 1.023969, 0.000345 
0.001250, 0.025000, 0.001000,  0.190408, 0.190377, 1.024968, 0.000368 
0.001250, 0.026000, 0.001000,  0.198025, 0.197992, 1.025967, 0.000392 
0.001250, 0.027000, 0.001000,  0.205641, 0.205607, 1.026965, 0.000418 
0.001250, 0.028000, 0.001000,  0.213257, 0.213223, 1.027964, 0.000444 
0.001250, 0.029000, 0.001000,  0.220874, 0.220838, 1.028963, 0.000472 
0.001250, 0.030000, 0.001000,  0.228490, 0.228453, 1.029962, 0.000502 
0.001250, 0.031000, 0.001000,  0.236106, 0.236069, 1.030960, 0.000533 
0.001250, 0.032000, 0.001000,  0.243723, 0.243684, 1.031959, 0.000566 
0.001250, 0.033000, 0.001000,  0.251339, 0.251300, 1.032958, 0.000600 
0.001250, 0.034000, 0.001000,  0.258955, 0.258915, 1.033956, 0.000637 
0.001250, 0.035000, 0.001000,  0.266572, 0.266531, 1.034955, 0.000676 
0.001250, 0.036000, 0.001000,  0.274188, 0.274146, 1.035954, 0.000718 
0.001250, 0.037000, 0.001000,  0.281804, 0.281762, 1.036953, 0.000762 
0.001250, 0.038000, 0.001000,  0.289421, 0.289377, 1.037951, 0.000810 
0.001250, 0.039000, 0.001000,  0.297037, 0.296993, 1.038950, 0.000861 
0.001250, 0.040000, 0.001000,  0.304653, 0.304608, 1.039949, 0.000916 
0.001250, 0.041000, 0.001000,  0.312270, 0.312224, 1.040947, 0.000974 
0.001250, 0.042000, 0.001000,  0.319886, 0.319840, 1.041946, 0.001037 
0.001250, 0.043000, 0.001000,  0.327502, 0.327455, 1.042945, 0.001106 
0.001250, 0.044000, 0.001000,  0.335119, 0.335071, 1.043943, 0.001181 
0.001250, 0.045000, 0.001000,  0.342735, 0.342687, 1.044942, 0.001263 
0.001250, 0.046000, 0.001000,  0.350351, 0.350302, 1.045941, 0.001352 
0.001250, 0.047000, 0.001000,  0.357968, 0.357918, 1.046939, 0.001450 
0.001250, 0.048000, 0.001000,  0.365584, 0.365534, 1.047938, 0.001556 
0.001250, 0.049000, 0.001000,  0.373200, 0.373150, 1.048937, 0.001673 
0.001250, 0.050000, 0.001000,  0.380817, 0.380765, 1.049935, 0.001808 
0.001250, 0.051000, 0.001000,  0.388433, 0.388381, 1.050934, 0.001959 
0.001250, 0.052000, 0.001000,  0.396049, 0.395997, 1.051933, 0.002127 
0.001250, 0.053000, 0.001000,  0.403666, 0.403613, 1.052932, 0.002316 
0.001250, 0.054000, 0.001000,  0.411282, 0.411229, 1.053930, 0.002528 
0.001250, 0.055000, 0.001000,  0.418898, 0.418845, 1.054929, 0.002764 
0.001250, 0.056000, 0.001000,  0.426515, 0.426460, 1.055928, 0.003046 
0.001250, 0.057000, 0.001000,  0.434131, 0.434076, 1.056926, 0.003382 
0.001250, 0.058000, 0.001000,  0.441747, 0.441692, 1.057925, 0.003768 
0.001250, 0.059000, 0.001000,  0.449364, 0.449308, 1.058924, 0.004208
0.001250, 0.060000, 0.001000,  0.456980, 0.456924, 1.059922, 0.004704 
0.001250, 0.061000, 0.001000,  0.464596, 0.464540, 1.060921, 0.005251 
0.001250, 0.062000, 0.001000,  0.472213, 0.472156, 1.061920, 0.005918 
0.001250, 0.063000, 0.001000,  0.479829, 0.479772, 1.062918, 0.006774 
0.001250, 0.064000, 0.001000,  0.487445, 0.487388, 1.063917, 0.007741 
0.001250, 0.065000, 0.001000,  0.495062, 0.495005, 1.064916, 0.008801 
0.001250, 0.066000, 0.001000,  0.502678, 0.502621, 1.065915, 0.009913 
0.001250, 0.067000, 0.001000,  0.510294, 0.510237, 1.066913, 0.011033 
0.001250, 0.068000, 0.001000,  0.517911, 0.517853, 1.067912, 0.012679 
0.001250, 0.069000, 0.001000,  0.525527, 0.525469, 1.068911, 0.014500 
0.001250, 0.070000, 0.001000,  0.533143, 0.533085, 1.069910, 0.016486 
0.001250, 0.071000, 0.001000,  0.540760, 0.540701, 1.070908, 0.018629 
0.001250, 0.072000, 0.001000,  0.548376, 0.548318, 1.071907, 0.019761 
0.001250, 0.073000, 0.001000,  0.555992, 0.555934, 1.072906, 0.020284 
0.001250, 0.074000, 0.001000,  0.563609, 0.563550, 1.073905, 0.020881 
0.001250, 0.075000, 0.001000,  0.571225, 0.571166, 1.074903, 0.021608 
0.001250, 0.076000, 0.001000,  0.578841, 0.578783, 1.075902, 0.022671 
0.001250, 0.077000, 0.001000,  0.586458, 0.586399, 1.076901, 0.023619 
0.001250, 0.078000, 0.001000,  0.594074, 0.594015, 1.077900, 0.024788 
0.001250, 0.079000, 0.001000,  0.601690, 0.601632, 1.078898, 0.025352 
0.001250, 0.080000, 0.001000,  0.609307, 0.609248, 1.079897, 0.026152 
0.001250, 0.081000, 0.001000,  0.616923, 0.616865, 1.080896, 0.027131 
0.001250, 0.082000, 0.001000,  0.624539, 0.624481, 1.081895, 0.028038 
0.001250, 0.083000, 0.001000,  0.632156, 0.632097, 1.082893, 0.028874 
0.001250, 0.084000, 0.001000,  0.639772, 0.639714, 1.083892, 0.029801 
0.001250, 0.085000, 0.001000,  0.647388, 0.647330, 1.084891, 0.030296 
0.001250, 0.086000, 0.001000,  0.655005, 0.654947, 1.085890, 0.030862 
0.001250, 0.087000, 0.001000,  0.662621, 0.662563, 1.086889, 0.032011 
0.001250, 0.088000, 0.001000,  0.670237, 0.670180, 1.087887, 0.032473 
0.001250, 0.089000, 0.001000,  0.677854, 0.677796, 1.088886, 0.033604 
0.001250, 0.090000, 0.001000,  0.685470, 0.685413, 1.089885, 0.034096 
0.001250, 0.091000, 0.001000,  0.693086, 0.693030, 1.090884, 0.034641 
0.001250, 0.092000, 0.001000,  0.700703, 0.700646, 1.091882, 0.035561 
0.001250, 0.093000, 0.001000,  0.708319, 0.708263, 1.092881, 0.036131 
0.001250, 0.094000, 0.001000,  0.715935, 0.715879, 1.093880, 0.036913 
0.001250, 0.095000, 0.001000,  0.723552, 0.723496, 1.094879, 0.037528 
0.001250, 0.096000, 0.001000,  0.731168, 0.731113, 1.095877, 0.037981 
0.001250, 0.097000, 0.001000,  0.738784, 0.738730, 1.096876, 0.038716 
0.001250, 0.098000, 0.001000,  0.746401, 0.746346, 1.097875, 0.039310 
0.001250, 0.099000, 0.001000,  0.754017, 0.753963, 1.098874, 0.039874 
0.001250, 0.100000, 0.001000,  0.761633, 0.761580, 1.099872, 0.040594 
0.001250, 0.101000, 0.001000,  0.769250, 0.769197, 1.100871, 0.041106 
0.001250, 0.102000, 0.001000,  0.776866, 0.776813, 1.101870, 0.041661 
0.001250, 0.103000, 0.001000,  0.784482, 0.784430, 1.102869, 0.042309 
0.001250, 0.104000, 0.001000,  0.792099, 0.792047, 1.103867, 0.042731 
0.001250, 0.105000, 0.001000,  0.799715, 0.799664, 1.104866, 0.043444 
0.001250, 0.106000, 0.001000,  0.807331, 0.807281, 1.105865, 0.043900 
0.001250, 0.107000, 0.001000,  0.814948, 0.814898, 1.106864, 0.044511 
0.001250, 0.108000, 0.001000,  0.822564, 0.822515, 1.107862, 0.045039 
0.001250, 0.109000, 0.001000,  0.830180, 0.830132, 1.108861, 0.045459 

0.000625, 0.010000, 0.001000,  0.076166, 0.076149, 1.009987, 0.000054 
0.000625, 0.011000, 0.001000,  0.083782, 0.083764, 1.010986, 0.000061 
0.000625, 0.012000, 0.001000,  0.091399, 0.091379, 1.011985, 0.000068 
0.000625, 0.013000, 0.001000,  0.099015, 0.098994, 1.012983, 0.000075 
0.000625, 0.014000, 0.001000,  0.106632, 0.106609, 1.013982, 0.000082 
0.000625, 0.015000, 0.001000,  0.114249, 0.114224, 1.014981, 0.000089 
0.000625, 0.016000, 0.001000,  0.121865, 0.121840, 1.015980, 0.000097 
0.000625, 0.017000, 0.001000,  0.129482, 0.129455, 1.016978, 0.000105 
0.000625, 0.018000, 0.001000,  0.137098, 0.137070, 1.017977, 0.000114 
0.000625, 0.019000, 0.001000,  0.144715, 0.144685, 1.018976, 0.000123 
0.000625, 0.020000, 0.001000,  0.152332, 0.152300, 1.019974, 0.000132 
0.000625, 0.021000, 0.001000,  0.159948, 0.159915, 1.020973, 0.000141 
0.000625, 0.022000, 0.001000,  0.167565, 0.167531, 1.021972, 0.000151 
0.000625, 0.023000, 0.001000,  0.175181, 0.175146, 1.022971, 0.000162 
0.000625, 0.024000, 0.001000,  0.182798, 0.182761, 1.023969, 0.000173 
0.000625, 0.025000, 0.001000,  0.190414, 0.190377, 1.024968, 0.000184 
0.000625, 0.026000, 0.001000,  0.198031, 0.197992, 1.025967, 0.000196 
0.000625, 0.027000, 0.001000,  0.205648, 0.205607, 1.026965, 0.000209 
0.000625, 0.028000, 0.001000,  0.213264, 0.213223, 1.027964, 0.000222 
0.000625, 0.029000, 0.001000,  0.220881, 0.220838, 1.028963, 0.000236 
0.000625, 0.030000, 0.001000,  0.228497, 0.228453, 1.029962, 0.000251 
0.000625, 0.031000, 0.001000,  0.236114, 0.236069, 1.030960, 0.000266 
0.000625, 0.032000, 0.001000,  0.243730, 0.243684, 1.031959, 0.000283 
0.000625, 0.033000, 0.001000,  0.251347, 0.251300, 1.032958, 0.000300 
0.000625, 0.034000, 0.001000,  0.258964, 0.258915, 1.033957, 0.000319 
0.000625, 0.035000, 0.001000,  0.266580, 0.266531, 1.034955, 0.000338 
0.000625, 0.036000, 0.001000,  0.274197, 0.274146, 1.035954, 0.000359 
0.000625, 0.037000, 0.001000,  0.281813, 0.281762, 1.036953, 0.000381 
0.000625, 0.038000, 0.001000,  0.289430, 0.289377, 1.037951, 0.000405 
0.000625, 0.039000, 0.001000,  0.297046, 0.296993, 1.038950, 0.000431 
0.000625, 0.040000, 0.001000,  0.304663, 0.304608, 1.039949, 0.000458 
0.000625, 0.041000, 0.001000,  0.312280, 0.312224, 1.040948, 0.000487 
0.000625, 0.042000, 0.001000,  0.319896, 0.319840, 1.041946, 0.000519 
0.000625, 0.043000, 0.001000,  0.327513, 0.327455, 1.042945, 0.000554 
0.000625, 0.044000, 0.001000,  0.335129, 0.335071, 1.043944, 0.000591 
0.000625, 0.045000, 0.001000,  0.342746, 0.342687, 1.044943, 0.000632 
0.000625, 0.046000, 0.001000,  0.350363, 0.350302, 1.045941, 0.000676 
0.000625, 0.047000, 0.001000,  0.357979, 0.357918, 1.046940, 0.000726 
0.000625, 0.048000, 0.001000,  0.365596, 0.365534, 1.047939, 0.000780 
0.000625, 0.049000, 0.001000,  0.373212, 0.373150, 1.048938, 0.000840 
0.000625, 0.050000, 0.001000,  0.380829, 0.380765, 1.049936, 0.000908 
0.000625, 0.051000, 0.001000,  0.388445, 0.388381, 1.050935, 0.000983 
0.000625, 0.052000, 0.001000,  0.396062, 0.395997, 1.051934, 0.001068 
0.000625, 0.053000, 0.001000,  0.403679, 0.403613, 1.052932, 0.001167 
0.000625, 0.054000, 0.001000,  0.411295, 0.411229, 1.053931, 0.001280 
0.000625, 0.055000, 0.001000,  0.418912, 0.418845, 1.054930, 0.001409 
0.000625, 0.056000, 0.001000,  0.426528, 0.426460, 1.055929, 0.001562 
0.000625, 0.057000, 0.001000,  0.434145, 0.434076, 1.056927, 0.001747 
0.000625, 0.058000, 0.001000,  0.441761, 0.441692, 1.057926, 0.001965 
0.000625, 0.059000, 0.001000,  0.449378, 0.449308, 1.058925, 0.002227 
0.000625, 0.060000, 0.001000,  0.456995, 0.456924, 1.059924, 0.002567 
0.000625, 0.061000, 0.001000,  0.464611, 0.464540, 1.060922, 0.002977 
0.000625, 0.062000, 0.001000,  0.472228, 0.472156, 1.061921, 0.003463 
0.000625, 0.063000, 0.001000,  0.479844, 0.479772, 1.062920, 0.004158 
0.000625, 0.064000, 0.001000,  0.487461, 0.487388, 1.063919, 0.004984 
0.000625, 0.065000, 0.001000,  0.495077, 0.495005, 1.064917, 0.005883 
0.000625, 0.066000, 0.001000,  0.502694, 0.502621, 1.065916, 0.007306 
0.000625, 0.067000, 0.001000,  0.510311, 0.510237, 1.066915, 0.008851 
0.000625, 0.068000, 0.001000,  0.517927, 0.517853, 1.067913, 0.010663 
0.000625, 0.069000, 0.001000,  0.525544, 0.525469, 1.068912, 0.012694 
0.000625, 0.070000, 0.001000,  0.533160, 0.533085, 1.069911, 0.015380 
0.000625, 0.071000, 0.001000,  0.540777, 0.540701, 1.070910, 0.016094 
0.000625, 0.072000, 0.001000,  0.548394, 0.548318, 1.071908, 0.016766 
0.000625, 0.073000, 0.001000,  0.556010, 0.555934, 1.072907, 0.018223 
0.000625, 0.074000, 0.001000,  0.563627, 0.563550, 1.073906, 0.019184 
0.000625, 0.075000, 0.001000,  0.571243, 0.571166, 1.074904, 0.019984 
0.000625, 0.076000, 0.001000,  0.578860, 0.578783, 1.075903, 0.021616 
0.000625, 0.077000, 0.001000,  0.586476, 0.586399, 1.076902, 0.022499 
0.000625, 0.078000, 0.001000,  0.594093, 0.594015, 1.077901, 0.023332 
0.000625, 0.079000, 0.001000,  0.601710, 0.601632, 1.078899, 0.024712 
0.000625, 0.080000, 0.001000,  0.609326, 0.609248, 1.079898, 0.025556 
0.000625, 0.081000, 0.001000,  0.616943, 0.616865, 1.080897, 0.026333 
0.000625, 0.082000, 0.001000,  0.624559, 0.624481, 1.081895, 0.027589 
0.000625, 0.083000, 0.001000,  0.632176, 0.632097, 1.082894, 0.028375 
0.000625, 0.084000, 0.001000,  0.639792, 0.639714, 1.083893, 0.028955 
0.000625, 0.085000, 0.001000,  0.647409, 0.647330, 1.084891, 0.030165 
0.000625, 0.086000, 0.001000,  0.655026, 0.654947, 1.085890, 0.030811 
0.000625, 0.087000, 0.001000,  0.662642, 0.662563, 1.086889, 0.031330 
0.000625, 0.088000, 0.001000,  0.670259, 0.670180, 1.087888, 0.032545 
0.000625, 0.089000, 0.001000,  0.677875, 0.677796, 1.088886, 0.033026 
0.000625, 0.090000, 0.001000,  0.685492, 0.685413, 1.089885, 0.033479 
0.000625, 0.091000, 0.001000,  0.693108, 0.693030, 1.090884, 0.034597 
0.000625, 0.092000, 0.001000,  0.700725, 0.700646, 1.091882, 0.035091 
0.000625, 0.093000, 0.001000,  0.708342, 0.708263, 1.092881, 0.035993 
0.000625, 0.094000, 0.001000,  0.715958, 0.715879, 1.093880, 0.036629 
0.000625, 0.095000, 0.001000,  0.723575, 0.723496, 1.094879, 0.037087 
0.000625, 0.096000, 0.001000,  0.731191, 0.731113, 1.095877, 0.038119 
0.000625, 0.097000, 0.001000,  0.738808, 0.738730, 1.096876, 0.038513 
0.000625, 0.098000, 0.001000,  0.746425, 0.746346, 1.097875, 0.039034 
0.000625, 0.099000, 0.001000,  0.754041, 0.753963, 1.098874, 0.039929 
0.000625, 0.100000, 0.001000,  0.761658, 0.761580, 1.099872, 0.040396 
0.000625, 0.101000, 0.001000,  0.769274, 0.769197, 1.100871, 0.041228 
0.000625, 0.102000, 0.001000,  0.776891, 0.776813, 1.101870, 0.041684 
0.000625, 0.103000, 0.001000,  0.784507, 0.784430, 1.102869, 0.042069 
0.000625, 0.104000, 0.001000,  0.792124, 0.792047, 1.103867, 0.042843 
0.000625, 0.105000, 0.001000,  0.799741, 0.799664, 1.104866, 0.043306 
0.000625, 0.106000, 0.001000,  0.807357, 0.807281, 1.105865, 0.044052 
0.000625, 0.107000, 0.001000,  0.814974, 0.814898, 1.106864, 0.044506 
0.000625, 0.108000, 0.001000,  0.822590, 0.822515, 1.107862, 0.044903 
0.000625, 0.109000, 0.001000,  0.830207, 0.830132, 1.108861, 0.045606 

0.000313, 0.010000, 0.001000,  0.076166, 0.076150, 1.009987, 0.000027 
0.000313, 0.011000, 0.001000,  0.083782, 0.083765, 1.010986, 0.000030 
0.000313, 0.012000, 0.001000,  0.091399, 0.091380, 1.011985, 0.000034 
0.000313, 0.013000, 0.001000,  0.099015, 0.098995, 1.012983, 0.000037 
0.000313, 0.014000, 0.001000,  0.106632, 0.106611, 1.013982, 0.000041 
0.000313, 0.015000, 0.001000,  0.114249, 0.114226, 1.014981, 0.000045 
0.000313, 0.016000, 0.001000,  0.121865, 0.121841, 1.015980, 0.000049 
0.000313, 0.017000, 0.001000,  0.129482, 0.129456, 1.016978, 0.000053 
0.000313, 0.018000, 0.001000,  0.137098, 0.137072, 1.017977, 0.000057 
0.000313, 0.019000, 0.001000,  0.144715, 0.144687, 1.018976, 0.000061 
0.000313, 0.020000, 0.001000,  0.152332, 0.152302, 1.019975, 0.000066 
0.000313, 0.021000, 0.001000,  0.159948, 0.159917, 1.020973, 0.000071 
0.000313, 0.022000, 0.001000,  0.167565, 0.167533, 1.021972, 0.000076 
0.000313, 0.023000, 0.001000,  0.175181, 0.175148, 1.022971, 0.000081 
0.000313, 0.024000, 0.001000,  0.182798, 0.182763, 1.023969, 0.000086 
0.000313, 0.025000, 0.001000,  0.190414, 0.190379, 1.024968, 0.000092 
0.000313, 0.026000, 0.001000,  0.198031, 0.197994, 1.025967, 0.000098 
0.000313, 0.027000, 0.001000,  0.205648, 0.205610, 1.026966, 0.000104 
0.000313, 0.028000, 0.001000,  0.213264, 0.213225, 1.027964, 0.000111 
0.000313, 0.029000, 0.001000,  0.220881, 0.220841, 1.028963, 0.000118 
0.000313, 0.030000, 0.001000,  0.228497, 0.228456, 1.029962, 0.000125 
0.000313, 0.031000, 0.001000,  0.236114, 0.236072, 1.030961, 0.000133 
0.000313, 0.032000, 0.001000,  0.243730, 0.243687, 1.031959, 0.000141 
0.000313, 0.033000, 0.001000,  0.251347, 0.251303, 1.032958, 0.000150 
0.000313, 0.034000, 0.001000,  0.258964, 0.258918, 1.033957, 0.000159 
0.000313, 0.035000, 0.001000,  0.266580, 0.266534, 1.034955, 0.000169 
0.000313, 0.036000, 0.001000,  0.274197, 0.274149, 1.035954, 0.000180 
0.000313, 0.037000, 0.001000,  0.281813, 0.281765, 1.036953, 0.000191 
0.000313, 0.038000, 0.001000,  0.289430, 0.289381, 1.037952, 0.000203 
0.000313, 0.039000, 0.001000,  0.297046, 0.296996, 1.038950, 0.000215 
0.000313, 0.040000, 0.001000,  0.304663, 0.304612, 1.039949, 0.000229 
0.000313, 0.041000, 0.001000,  0.312280, 0.312228, 1.040948, 0.000244 
0.000313, 0.042000, 0.001000,  0.319896, 0.319843, 1.041946, 0.000260 
0.000313, 0.043000, 0.001000,  0.327513, 0.327459, 1.042945, 0.000277 
0.000313, 0.044000, 0.001000,  0.335129, 0.335075, 1.043944, 0.000296 
0.000313, 0.045000, 0.001000,  0.342746, 0.342691, 1.044943, 0.000316 
0.000313, 0.046000, 0.001000,  0.350363, 0.350307, 1.045941, 0.000338 
0.000313, 0.047000, 0.001000,  0.357979, 0.357922, 1.046940, 0.000363 
0.000313, 0.048000, 0.001000,  0.365596, 0.365538, 1.047939, 0.000390 
0.000313, 0.049000, 0.001000,  0.373212, 0.373154, 1.048938, 0.000420 
0.000313, 0.050000, 0.001000,  0.380829, 0.380770, 1.049936, 0.000454 
0.000313, 0.051000, 0.001000,  0.388445, 0.388386, 1.050935, 0.000492 
0.000313, 0.052000, 0.001000,  0.396062, 0.396002, 1.051934, 0.000535 
0.000313, 0.053000, 0.001000,  0.403679, 0.403618, 1.052932, 0.000584 
0.000313, 0.054000, 0.001000,  0.411295, 0.411234, 1.053931, 0.000640 
0.000313, 0.055000, 0.001000,  0.418912, 0.418850, 1.054930, 0.000706 
0.000313, 0.056000, 0.001000,  0.426528, 0.426466, 1.055929, 0.000784 
0.000313, 0.057000, 0.001000,  0.434145, 0.434082, 1.056927, 0.000877 
0.000313, 0.058000, 0.001000,  0.441761, 0.441698, 1.057926, 0.000991 
0.000313, 0.059000, 0.001000,  0.449378, 0.449314, 1.058925, 0.001132
0.000313, 0.060000, 0.001000,  0.456995, 0.456930, 1.059924, 0.001313 
0.000313, 0.061000, 0.001000,  0.464611, 0.464546, 1.060922, 0.001549 
0.000313, 0.062000, 0.001000,  0.472228, 0.472162, 1.061921, 0.001860 
0.000313, 0.063000, 0.001000,  0.479844, 0.479778, 1.062920, 0.002312 
0.000313, 0.064000, 0.001000,  0.487461, 0.487394, 1.063919, 0.002932 
0.000313, 0.065000, 0.001000,  0.495077, 0.495010, 1.064917, 0.003815 
0.000313, 0.066000, 0.001000,  0.502694, 0.502627, 1.065916, 0.005143 
0.000313, 0.067000, 0.001000,  0.510311, 0.510243, 1.066915, 0.006775 
0.000313, 0.068000, 0.001000,  0.517927, 0.517859, 1.067913, 0.009473 
0.000313, 0.069000, 0.001000,  0.525544, 0.525475, 1.068912, 0.011743 
0.000313, 0.070000, 0.001000,  0.533160, 0.533091, 1.069911, 0.012821 
0.000313, 0.071000, 0.001000,  0.540777, 0.540708, 1.070910, 0.014536 
0.000313, 0.072000, 0.001000,  0.548394, 0.548324, 1.071908, 0.015537 
0.000313, 0.073000, 0.001000,  0.556010, 0.555940, 1.072907, 0.016946 
0.000313, 0.074000, 0.001000,  0.563627, 0.563557, 1.073906, 0.018631 
0.000313, 0.075000, 0.001000,  0.571243, 0.571173, 1.074904, 0.019567 
0.000313, 0.076000, 0.001000,  0.578860, 0.578789, 1.075903, 0.020744 
0.000313, 0.077000, 0.001000,  0.586476, 0.586406, 1.076902, 0.022169 
0.000313, 0.078000, 0.001000,  0.594093, 0.594022, 1.077901, 0.023087 
0.000313, 0.079000, 0.001000,  0.601710, 0.601639, 1.078899, 0.023906 
0.000313, 0.080000, 0.001000,  0.609326, 0.609255, 1.079898, 0.025365 
0.000313, 0.081000, 0.001000,  0.616943, 0.616872, 1.080897, 0.026169 
0.000313, 0.082000, 0.001000,  0.624559, 0.624488, 1.081896, 0.026641 
0.000313, 0.083000, 0.001000,  0.632176, 0.632105, 1.082894, 0.028244 
0.000313, 0.084000, 0.001000,  0.639792, 0.639721, 1.083893, 0.028542 
0.000313, 0.085000, 0.001000,  0.647409, 0.647338, 1.084892, 0.029710 
0.000313, 0.086000, 0.001000,  0.655026, 0.654954, 1.085891, 0.030666 
0.000313, 0.087000, 0.001000,  0.662642, 0.662571, 1.086889, 0.031316 
0.000313, 0.088000, 0.001000,  0.670259, 0.670188, 1.087888, 0.032130 
0.000313, 0.089000, 0.001000,  0.677875, 0.677804, 1.088887, 0.032741 
0.000313, 0.090000, 0.001000,  0.685492, 0.685421, 1.089885, 0.033850 
0.000313, 0.091000, 0.001000,  0.693108, 0.693037, 1.090884, 0.034306 
0.000313, 0.092000, 0.001000,  0.700725, 0.700654, 1.091883, 0.035112 
0.000313, 0.093000, 0.001000,  0.708342, 0.708271, 1.092882, 0.035628 
0.000313, 0.094000, 0.001000,  0.715958, 0.715888, 1.093880, 0.036692 
0.000313, 0.095000, 0.001000,  0.723575, 0.723504, 1.094879, 0.037166 
0.000313, 0.096000, 0.001000,  0.731191, 0.731121, 1.095878, 0.037660 
0.000313, 0.097000, 0.001000,  0.738808, 0.738738, 1.096877, 0.038593 
0.000313, 0.098000, 0.001000,  0.746425, 0.746355, 1.097875, 0.039303 
0.000313, 0.099000, 0.001000,  0.754041, 0.753972, 1.098874, 0.039701 
0.000313, 0.100000, 0.001000,  0.761658, 0.761588, 1.099873, 0.040435 
0.000313, 0.101000, 0.001000,  0.769274, 0.769205, 1.100871, 0.040891 
0.000313, 0.102000, 0.001000,  0.776891, 0.776822, 1.101870, 0.041644 
0.000313, 0.103000, 0.001000,  0.784507, 0.784439, 1.102869, 0.042352 
0.000313, 0.104000, 0.001000,  0.792124, 0.792056, 1.103868, 0.042637 
0.000313, 0.105000, 0.001000,  0.799741, 0.799673, 1.104866, 0.043331 
0.000313, 0.106000, 0.001000,  0.807357, 0.807290, 1.105865, 0.043992 
0.000313, 0.107000, 0.001000,  0.814974, 0.814907, 1.106864, 0.044536 
0.000313, 0.108000, 0.001000,  0.822590, 0.822524, 1.107862, 0.045062 
0.000313, 0.109000, 0.001000,  0.830207, 0.830141, 1.108861, 0.045502 

0.000156, 0.010000, 0.001000,  0.076166, 0.076150, 1.009987, 0.000014 
0.000156, 0.011000, 0.001000,  0.083782, 0.083765, 1.010986, 0.000015 
0.000156, 0.012000, 0.001000,  0.091399, 0.091380, 1.011985, 0.000017 
0.000156, 0.013000, 0.001000,  0.099016, 0.098995, 1.012983, 0.000019 
0.000156, 0.014000, 0.001000,  0.106632, 0.106611, 1.013982, 0.000020 
0.000156, 0.015000, 0.001000,  0.114249, 0.114226, 1.014981, 0.000022 
0.000156, 0.016000, 0.001000,  0.121865, 0.121841, 1.015980, 0.000024 
0.000156, 0.017000, 0.001000,  0.129482, 0.129456, 1.016978, 0.000026 
0.000156, 0.018000, 0.001000,  0.137099, 0.137072, 1.017977, 0.000028 
0.000156, 0.019000, 0.001000,  0.144715, 0.144687, 1.018976, 0.000031 
0.000156, 0.020000, 0.001000,  0.152332, 0.152302, 1.019975, 0.000033 
0.000156, 0.021000, 0.001000,  0.159948, 0.159917, 1.020973, 0.000035 
0.000156, 0.022000, 0.001000,  0.167565, 0.167533, 1.021972, 0.000038 
0.000156, 0.023000, 0.001000,  0.175182, 0.175148, 1.022971, 0.000040 
0.000156, 0.024000, 0.001000,  0.182798, 0.182763, 1.023969, 0.000043 
0.000156, 0.025000, 0.001000,  0.190415, 0.190379, 1.024968, 0.000046 
0.000156, 0.026000, 0.001000,  0.198031, 0.197994, 1.025967, 0.000049 
0.000156, 0.027000, 0.001000,  0.205648, 0.205610, 1.026966, 0.000052 
0.000156, 0.028000, 0.001000,  0.213264, 0.213225, 1.027964, 0.000056
0.000156, 0.029000, 0.001000,  0.220881, 0.220841, 1.028963, 0.000059 
0.000156, 0.030000, 0.001000,  0.228498, 0.228456, 1.029962, 0.000063
0.000156, 0.031000, 0.001000,  0.236114, 0.236072, 1.030961, 0.000067 
0.000156, 0.032000, 0.001000,  0.243731, 0.243687, 1.031959, 0.000071 
0.000156, 0.033000, 0.001000,  0.251347, 0.251303, 1.032958, 0.000075 
0.000156, 0.034000, 0.001000,  0.258964, 0.258918, 1.033957, 0.000080 
0.000156, 0.035000, 0.001000,  0.266581, 0.266534, 1.034955, 0.000085 
0.000156, 0.036000, 0.001000,  0.274197, 0.274149, 1.035954, 0.000090 
0.000156, 0.037000, 0.001000,  0.281814, 0.281765, 1.036953, 0.000095 
0.000156, 0.038000, 0.001000,  0.289430, 0.289381, 1.037952, 0.000101 
0.000156, 0.039000, 0.001000,  0.297047, 0.296996, 1.038950, 0.000108 
0.000156, 0.040000, 0.001000,  0.304664, 0.304612, 1.039949, 0.000114 
0.000156, 0.041000, 0.001000,  0.312280, 0.312228, 1.040948, 0.000122 
0.000156, 0.042000, 0.001000,  0.319897, 0.319843, 1.041947, 0.000130 
0.000156, 0.043000, 0.001000,  0.327513, 0.327459, 1.042945, 0.000138 
0.000156, 0.044000, 0.001000,  0.335130, 0.335075, 1.043944, 0.000148 
0.000156, 0.045000, 0.001000,  0.342746, 0.342691, 1.044943, 0.000158 
0.000156, 0.046000, 0.001000,  0.350363, 0.350307, 1.045941, 0.000169 
0.000156, 0.047000, 0.001000,  0.357980, 0.357922, 1.046940, 0.000181 
0.000156, 0.048000, 0.001000,  0.365596, 0.365538, 1.047939, 0.000195 
0.000156, 0.049000, 0.001000,  0.373213, 0.373154, 1.048938, 0.000210 
0.000156, 0.050000, 0.001000,  0.380829, 0.380770, 1.049936, 0.000227 
0.000156, 0.051000, 0.001000,  0.388446, 0.388386, 1.050935, 0.000246 
0.000156, 0.052000, 0.001000,  0.396063, 0.396002, 1.051934, 0.000267 
0.000156, 0.053000, 0.001000,  0.403679, 0.403618, 1.052932, 0.000292 
0.000156, 0.054000, 0.001000,  0.411296, 0.411234, 1.053931, 0.000320 
0.000156, 0.055000, 0.001000,  0.418912, 0.418850, 1.054930, 0.000353 
0.000156, 0.056000, 0.001000,  0.426529, 0.426466, 1.055929, 0.000392 
0.000156, 0.057000, 0.001000,  0.434146, 0.434082, 1.056927, 0.000439 
0.000156, 0.058000, 0.001000,  0.441762, 0.441698, 1.057926, 0.000496 
0.000156, 0.059000, 0.001000,  0.449379, 0.449314, 1.058925, 0.000567 
0.000156, 0.060000, 0.001000,  0.456995, 0.456930, 1.059924, 0.000659 
0.000156, 0.061000, 0.001000,  0.464612, 0.464546, 1.060922, 0.000780 
0.000156, 0.062000, 0.001000,  0.472228, 0.472162, 1.061921, 0.000948 
0.000156, 0.063000, 0.001000,  0.479845, 0.479778, 1.062920, 0.001194 
0.000156, 0.064000, 0.001000,  0.487462, 0.487394, 1.063919, 0.001587 
0.000156, 0.065000, 0.001000,  0.495078, 0.495010, 1.064917, 0.002247 
0.000156, 0.066000, 0.001000,  0.502695, 0.502627, 1.065916, 0.003365 
0.000156, 0.067000, 0.001000,  0.510311, 0.510243, 1.066915, 0.005222 
0.000156, 0.068000, 0.001000,  0.517928, 0.517859, 1.067913, 0.008375 
0.000156, 0.069000, 0.001000,  0.525545, 0.525475, 1.068912, 0.010316 
0.000156, 0.070000, 0.001000,  0.533161, 0.533091, 1.069911, 0.011897 
0.000156, 0.071000, 0.001000,  0.540778, 0.540708, 1.070910, 0.013238 
0.000156, 0.072000, 0.001000,  0.548394, 0.548324, 1.071908, 0.014929 
0.000156, 0.073000, 0.001000,  0.556011, 0.555940, 1.072907, 0.016837 
0.000156, 0.074000, 0.001000,  0.563628, 0.563557, 1.073906, 0.017839 
0.000156, 0.075000, 0.001000,  0.571244, 0.571173, 1.074905, 0.018772 
0.000156, 0.076000, 0.001000,  0.578861, 0.578789, 1.075903, 0.020747 
0.000156, 0.077000, 0.001000,  0.586477, 0.586406, 1.076902, 0.021643 
0.000156, 0.078000, 0.001000,  0.594094, 0.594022, 1.077901, 0.022168 
0.000156, 0.079000, 0.001000,  0.601710, 0.601639, 1.078899, 0.024138 
0.000156, 0.080000, 0.001000,  0.609327, 0.609255, 1.079898, 0.024658 
0.000156, 0.081000, 0.001000,  0.616944, 0.616872, 1.080897, 0.025436 
0.000156, 0.082000, 0.001000,  0.624560, 0.624488, 1.081896, 0.027103 
0.000156, 0.083000, 0.001000,  0.632177, 0.632105, 1.082894, 0.026132 
0.000156, 0.084000, 0.001000,  0.639793, 0.639721, 1.083893, 0.028831 
0.000156, 0.085000, 0.001000,  0.647410, 0.647338, 1.084892, 0.028862 
0.000156, 0.086000, 0.001000,  0.655027, 0.654954, 1.085891, 0.029949 
0.000156, 0.087000, 0.001000,  0.662643, 0.662571, 1.086889, 0.031266 
0.000156, 0.088000, 0.001000,  0.670260, 0.670188, 1.087888, 0.031677 
0.000156, 0.089000, 0.001000,  0.677876, 0.677804, 1.088887, 0.033015 
0.000156, 0.090000, 0.001000,  0.685493, 0.685421, 1.089885, 0.033360 
0.000156, 0.091000, 0.001000,  0.693110, 0.693037, 1.090884, 0.034506 
0.000156, 0.092000, 0.001000,  0.700726, 0.700654, 1.091883, 0.034816 
0.000156, 0.093000, 0.001000,  0.708343, 0.708271, 1.092882, 0.035880 
0.000156, 0.094000, 0.001000,  0.715959, 0.715888, 1.093880, 0.036413 
0.000156, 0.095000, 0.001000,  0.723576, 0.723504, 1.094879, 0.037268 
0.000156, 0.096000, 0.001000,  0.731193, 0.731121, 1.095878, 0.037703 
0.000156, 0.097000, 0.001000,  0.738809, 0.738738, 1.096877, 0.038650 
0.000156, 0.098000, 0.001000,  0.746426, 0.746355, 1.097875, 0.039078 
0.000156, 0.099000, 0.001000,  0.754042, 0.753972, 1.098874, 0.039813 
0.000156, 0.100000, 0.001000,  0.761659, 0.761588, 1.099873, 0.040390 
0.000156, 0.101000, 0.001000,  0.769275, 0.769205, 1.100871, 0.040856 
0.000156, 0.102000, 0.001000,  0.776892, 0.776822, 1.101870, 0.040972 
0.000156, 0.103000, 0.001000,  0.784509, 0.784439, 1.102869, 0.042132 
0.000156, 0.104000, 0.001000,  0.792125, 0.792056, 1.103868, 0.042906 
0.000156, 0.105000, 0.001000,  0.799742, 0.799673, 1.104866, 0.043208 
0.000156, 0.106000, 0.001000,  0.807358, 0.807290, 1.105865, 0.043939 
0.000156, 0.107000, 0.001000,  0.814975, 0.814907, 1.106864, 0.044441 
0.000156, 0.108000, 0.001000,  0.822592, 0.822524, 1.107863, 0.044850 
0.000156, 0.109000, 0.001000,  0.830208, 0.830141, 1.108861, 0.045414 

7.812500e-05, 5.000000e-02, 1.000000e-03,  3.808294e-01, 3.807699e-01, 1.049936e+00, 1.135125e-04 
7.812500e-05, 5.200000e-02, 1.000000e-03,  3.960626e-01, 3.960017e-01, 1.051934e+00, 1.337363e-04 
7.812500e-05, 5.400000e-02, 1.000000e-03,  4.112958e-01, 4.112336e-01, 1.053931e+00, 1.601584e-04 
7.812500e-05, 5.600000e-02, 1.000000e-03,  4.265290e-01, 4.264655e-01, 1.055929e+00, 1.961427e-04 
7.812500e-05, 5.800000e-02, 1.000000e-03,  4.417621e-01, 4.416976e-01, 1.057926e+00, 2.480305e-04 
7.812500e-05, 6.000000e-02, 1.000000e-03,  4.569953e-01, 4.569297e-01, 1.059924e+00, 3.293683e-04 
7.812500e-05, 6.200000e-02, 1.000000e-03,  4.722285e-01, 4.721619e-01, 1.061921e+00, 4.751056e-04 
7.812500e-05, 6.400000e-02, 1.000000e-03,  4.874617e-01, 4.873942e-01, 1.063919e+00, 8.100985e-04 
7.812500e-05, 6.600000e-02, 1.000000e-03,  5.026949e-01, 5.026265e-01, 1.065916e+00, 2.076371e-03 
7.812500e-05, 6.800000e-02, 1.000000e-03,  5.179280e-01, 5.178590e-01, 1.067913e+00, 7.519125e-03 
7.812500e-05, 7.000000e-02, 1.000000e-03,  5.331612e-01, 5.330915e-01, 1.069911e+00, 1.136034e-02 
7.812500e-05, 7.200000e-02, 1.000000e-03,  5.483944e-01, 5.483240e-01, 1.071908e+00, 1.495904e-02 
7.812500e-05, 7.400000e-02, 1.000000e-03,  5.636276e-01, 5.635567e-01, 1.073906e+00, 1.793477e-02 
7.812500e-05, 7.600000e-02, 1.000000e-03,  5.788607e-01, 5.787894e-01, 1.075903e+00, 2.008219e-02 
7.812500e-05, 7.800000e-02, 1.000000e-03,  5.940939e-01, 5.940223e-01, 1.077901e+00, 2.231858e-02 
7.812500e-05, 8.000000e-02, 1.000000e-03,  6.093271e-01, 6.092552e-01, 1.079898e+00, 2.495871e-02 
7.812500e-05, 8.200000e-02, 1.000000e-03,  6.245603e-01, 6.244881e-01, 1.081896e+00, 2.601246e-02 
7.812500e-05, 8.400000e-02, 1.000000e-03,  6.397935e-01, 6.397212e-01, 1.083893e+00, 2.820181e-02 
7.812500e-05, 8.600000e-02, 1.000000e-03,  6.550266e-01, 6.549543e-01, 1.085891e+00, 3.051781e-02 
7.812500e-05, 8.800000e-02, 1.000000e-03,  6.702598e-01, 6.701875e-01, 1.087888e+00, 3.187224e-02 

3.906250e-05, 5.000000e-02, 1.000000e-03, 3.808295e-01, 3.807699e-01, 1.049936e+00, 5.675626e-05, 
3.906250e-05, 5.200000e-02, 1.000000e-03, 3.960627e-01, 3.960017e-01, 1.051934e+00, 6.686852e-05, 
3.906250e-05, 5.400000e-02, 1.000000e-03, 4.112959e-01, 4.112336e-01, 1.053931e+00, 8.008044e-05, 
3.906250e-05, 5.600000e-02, 1.000000e-03, 4.265291e-01, 4.264655e-01, 1.055929e+00, 9.807506e-05, 
3.906250e-05, 5.800000e-02, 1.000000e-03, 4.417622e-01, 4.416976e-01, 1.057926e+00, 1.240243e-04, 
3.906250e-05, 6.000000e-02, 1.000000e-03, 4.569954e-01, 4.569297e-01, 1.059924e+00, 1.647030e-04, 
3.906250e-05, 6.200000e-02, 1.000000e-03, 4.722286e-01, 4.721619e-01, 1.061921e+00, 2.376106e-04, 
3.906250e-05, 6.400000e-02, 1.000000e-03, 4.874618e-01, 4.873942e-01, 1.063919e+00, 4.060216e-04, 
3.906250e-05, 6.600000e-02, 1.000000e-03, 5.026950e-01, 5.026265e-01, 1.065916e+00, 1.154234e-03, 
3.906250e-05, 6.800000e-02, 1.000000e-03, 5.179281e-01, 5.178590e-01, 1.067913e+00, 6.452428e-03, 
3.906250e-05, 7.000000e-02, 1.000000e-03, 5.331613e-01, 5.330915e-01, 1.069911e+00, 1.108637e-02, 
3.906250e-05, 7.200000e-02, 1.000000e-03, 5.483945e-01, 5.483240e-01, 1.071908e+00, 1.432679e-02, 
3.906250e-05, 7.400000e-02, 1.000000e-03, 5.636277e-01, 5.635567e-01, 1.073906e+00, 1.710316e-02, 
3.906250e-05, 7.600000e-02, 1.000000e-03, 5.788609e-01, 5.787894e-01, 1.075903e+00, 2.031155e-02, 
3.906250e-05, 7.800000e-02, 1.000000e-03, 5.940940e-01, 5.940223e-01, 1.077901e+00, 2.268466e-02, 
3.906250e-05, 8.000000e-02, 1.000000e-03, 6.093272e-01, 6.092552e-01, 1.079898e+00, 2.444598e-02, 
3.906250e-05, 8.200000e-02, 1.000000e-03, 6.245604e-01, 6.244881e-01, 1.081896e+00, 2.659813e-02, 
3.906250e-05, 8.400000e-02, 1.000000e-03, 6.397936e-01, 6.397212e-01, 1.083893e+00, 2.883972e-02, 
3.906250e-05, 8.600000e-02, 1.000000e-03, 6.550268e-01, 6.549543e-01, 1.085891e+00, 2.983425e-02, 
3.906250e-05, 8.800000e-02, 1.000000e-03, 6.702599e-01, 6.701875e-01, 1.087888e+00, 3.174475e-02, 
3.906250e-05, 9.000000e-02, 1.000000e-03, 6.854931e-01, 6.854208e-01, 1.089885e+00, 3.356803e-02, 

1.953125e-05, 5.000000e-02, 1.000000e-03, 3.808295e-01, 3.807699e-01, 1.049936e+00, 2.837821e-05, 
1.953125e-05, 5.102564e-02, 1.000000e-03, 3.886414e-01, 3.885811e-01, 1.050961e+00, 3.081342e-05, 
1.953125e-05, 5.205128e-02, 1.000000e-03, 3.964533e-01, 3.963923e-01, 1.051985e+00, 3.358169e-05, 
1.953125e-05, 5.307692e-02, 1.000000e-03, 4.042652e-01, 4.042035e-01, 1.053009e+00, 3.675634e-05, 
1.953125e-05, 5.410256e-02, 1.000000e-03, 4.120771e-01, 4.120147e-01, 1.054034e+00, 4.043407e-05, 
1.953125e-05, 5.512821e-02, 1.000000e-03, 4.198889e-01, 4.198260e-01, 1.055058e+00, 4.474466e-05, 
1.953125e-05, 5.615385e-02, 1.000000e-03, 4.277008e-01, 4.276372e-01, 1.056082e+00, 4.986676e-05, 
1.953125e-05, 5.717949e-02, 1.000000e-03, 4.355127e-01, 4.354485e-01, 1.057107e+00, 5.605377e-05, 
1.953125e-05, 5.820513e-02, 1.000000e-03, 4.433246e-01, 4.432599e-01, 1.058131e+00, 6.367587e-05, 
1.953125e-05, 5.923077e-02, 1.000000e-03, 4.511365e-01, 4.510712e-01, 1.059155e+00, 7.329760e-05, 
1.953125e-05, 6.025641e-02, 1.000000e-03, 4.589484e-01, 4.588825e-01, 1.060180e+00, 8.582660e-05, 
1.953125e-05, 6.128205e-02, 1.000000e-03, 4.667603e-01, 4.666939e-01, 1.061204e+00, 1.028121e-04, 
1.953125e-05, 6.230769e-02, 1.000000e-03, 4.745722e-01, 4.745053e-01, 1.062228e+00, 1.271461e-04, 
1.953125e-05, 6.333333e-02, 1.000000e-03, 4.823840e-01, 4.823167e-01, 1.063253e+00, 1.649247e-04, 
1.953125e-05, 6.435897e-02, 1.000000e-03, 4.901959e-01, 4.901282e-01, 1.064277e+00, 2.314950e-04, 
1.953125e-05, 6.538462e-02, 1.000000e-03, 4.980078e-01, 4.979396e-01, 1.065301e+00, 3.799280e-04, 
1.953125e-05, 6.641026e-02, 1.000000e-03, 5.058197e-01, 5.057511e-01, 1.066326e+00, 9.496029e-04, 
1.953125e-05, 6.743590e-02, 1.000000e-03, 5.136316e-01, 5.135626e-01, 1.067350e+00, 4.410396e-03, 
1.953125e-05, 6.846154e-02, 1.000000e-03, 5.214435e-01, 5.213741e-01, 1.068374e+00, 7.348063e-03, 
1.953125e-05, 6.948718e-02, 1.000000e-03, 5.292554e-01, 5.291857e-01, 1.069399e+00, 9.320496e-03, 
1.953125e-05, 7.051282e-02, 1.000000e-03, 5.370673e-01, 5.369973e-01, 1.070423e+00, 1.201035e-02, 
1.953125e-05, 7.153846e-02, 1.000000e-03, 5.448791e-01, 5.448088e-01, 1.071447e+00, 1.389289e-02, 
1.953125e-05, 7.256410e-02, 1.000000e-03, 5.526910e-01, 5.526204e-01, 1.072472e+00, 1.535578e-02, 
1.953125e-05, 7.358974e-02, 1.000000e-03, 5.605029e-01, 5.604321e-01, 1.073496e+00, 1.682578e-02, 
1.953125e-05, 7.461538e-02, 1.000000e-03, 5.683148e-01, 5.682437e-01, 1.074520e+00, 1.842796e-02, 
1.953125e-05, 7.564103e-02, 1.000000e-03, 5.761267e-01, 5.760554e-01, 1.075545e+00, 1.999394e-02, 
1.953125e-05, 7.666667e-02, 1.000000e-03, 5.839386e-01, 5.838671e-01, 1.076569e+00, 2.083207e-02, 
1.953125e-05, 7.769231e-02, 1.000000e-03, 5.917505e-01, 5.916788e-01, 1.077593e+00, 2.216762e-02, 
1.953125e-05, 7.871795e-02, 1.000000e-03, 5.995624e-01, 5.994905e-01, 1.078618e+00, 2.363363e-02, 
1.953125e-05, 7.974359e-02, 1.000000e-03, 6.073742e-01, 6.073022e-01, 1.079642e+00, 2.305940e-02, 
1.953125e-05, 8.076923e-02, 1.000000e-03, 6.151861e-01, 6.151140e-01, 1.080666e+00, 2.549654e-02, 
1.953125e-05, 8.179487e-02, 1.000000e-03, 6.229980e-01, 6.229258e-01, 1.081691e+00, 2.666263e-02, 
1.953125e-05, 8.282051e-02, 1.000000e-03, 6.308099e-01, 6.307376e-01, 1.082715e+00, 2.726363e-02, 
1.953125e-05, 8.384615e-02, 1.000000e-03, 6.386218e-01, 6.385494e-01, 1.083739e+00, 2.778864e-02, 
1.953125e-05, 8.487179e-02, 1.000000e-03, 6.464337e-01, 6.463613e-01, 1.084764e+00, 2.876729e-02, 
1.953125e-05, 8.589744e-02, 1.000000e-03, 6.542456e-01, 6.541731e-01, 1.085788e+00, 3.002355e-02, 
1.953125e-05, 8.692308e-02, 1.000000e-03, 6.620575e-01, 6.619850e-01, 1.086812e+00, 3.098831e-02, 
1.953125e-05, 8.794872e-02, 1.000000e-03, 6.698693e-01, 6.697969e-01, 1.087837e+00, 3.146994e-02, 
1.953125e-05, 8.897436e-02, 1.000000e-03, 6.776812e-01, 6.776089e-01, 1.088861e+00, 3.286351e-02, 
1.953125e-05, 9.000000e-02, 1.000000e-03, 6.854931e-01, 6.854208e-01, 1.089885e+00, 3.326180e-02, 
